^C:\USERS\PC USER\CPPPROJECTS\HOMEWORK19\X64\DEBUG\HOMEWORK19.OBJ
C:\USERS\PC USER\CPPPROJECTS\HOMEWORK19\X64\DEBUG\HOMEWORK19.ILK
C:\USERS\PC USER\CPPPROJECTS\HOMEWORK19\X64\DEBUG\HOMEWORK19.EXE
C:\USERS\PC USER\CPPPROJECTS\HOMEWORK19\X64\DEBUG\HOMEWORK19.PDB
